[
  {
    "css": "/* front legend */\n.keylabel10 div { \n    font-size: xx-small;\n    font-style: italic;\n    text-shadow: 1px 1px 2px #FFD600;\n}\n/* description */\ncenter h2 {\n    margin-top: 1em;\n}\ncenter ul {\n    padding-left: 0;\n    margin-top: 1em;\n    padding-top: 1em;\n    font-size: smaller;\n}\ncenter ul li {\n    margin-top: 1ex;\n    list-style-type: none;\n}\ncenter ul li a {\n    font-weight: bold;\n}\ncenter .permalink {\n    font-size: x-small;\n}\ncenter em {\n    font-weight: normal;\n    font-style: normal;\n}"
  },
  [
    {
      "x": 2,
      "p": "CHICKLET",
      "a": 7
    },
    "",
    "",
    "",
    {
      "x": 7
    },
    "",
    "",
    ""
  ],
  [
    {
      "y": -0.5
    },
    "",
    "",
    {
      "x": 13
    },
    "",
    ""
  ],
  [
    {
      "y": -0.5,
      "x": 2,
      "f": 4
    },
    "",
    "",
    "",
    "",
    {
      "a": 4,
      "w": 5,
      "h": 4,
      "d": true
    },
    "<center><h2>Base Layer</h2><p>MoErgo Glove80 keyboard</p><p>Seemann</p></center>",
    {
      "a": 7
    },
    "",
    "",
    "",
    ""
  ],
  [
    {
      "y": -0.5
    },
    "",
    "",
    {
      "x": 13
    },
    "",
    ""
  ],
  [
    {
      "y": -0.5,
      "x": 2
    },
    "",
    "",
    "",
    "",
    {
      "x": 5
    },
    "",
    "",
    "",
    ""
  ],
  [
    {
      "y": -0.5
    },
    "",
    "",
    {
      "x": 13
    },
    "",
    ""
  ],
  [
    {
      "y": -0.5,
      "x": 2
    },
    "",
    "",
    {
      "n": true
    },
    "",
    "",
    {
      "x": 5
    },
    "",
    {
      "n": true
    },
    "",
    "",
    ""
  ],
  [
    {
      "y": -0.5
    },
    "",
    "",
    {
      "x": 13
    },
    "",
    ""
  ],
  [
    {
      "y": -0.5,
      "x": 2
    },
    "",
    "",
    "",
    "",
    {
      "x": 5
    },
    "",
    "",
    "",
    ""
  ],
  [
    {
      "y": -0.5
    },
    "",
    "",
    {
      "x": 13
    },
    "",
    ""
  ],
  [
    {
      "y": -0.5,
      "x": 2
    },
    "",
    "",
    "",
    {
      "c": "#D1C4E9",
      "p": "SPACE",
      "f": 3
    },
    "",
    "",
    "",
    {
      "x": 1
    },
    "",
    "",
    "",
    {
      "c": "#cccccc",
      "p": "CHICKLET",
      "f": 4
    },
    "",
    "",
    ""
  ],
  [
    {
      "y": -0.5
    },
    "",
    "",
    {
      "x": 13
    },
    "",
    ""
  ],
  [
    {
      "y": -0.5,
      "x": 5,
      "c": "#D1C4E9",
      "p": "SPACE"
    },
    "",
    "",
    {
      "c": "#757575",
      "t": "#EEEEEE"
    },
    "",
    {
      "x": 1
    },
    "",
    {
      "c": "#D1C4E9",
      "t": "#000000"
    },
    "",
    ""
  ]
]